"id","name","sequence","fold","is_close"
"helpdesk.stage_new","Nuevo","0","False","False"
"helpdesk.stage_in_progress","Proceso","1","False","False"
"helpdesk.stage_delegate","Delegado","2","False","False"
"helpdesk.stage_administrator","Administrador","3","False","False"
"helpdesk.stage_close","Terminado","4","True","True"
